%YAML 1.1
%TAG !u! tag:unity3d.com,2011:
--- !u!114 &11400000
MonoBehaviour:
  m_ObjectHideFlags: 0
  m_CorrespondingSourceObject: {fileID: 0}
  m_PrefabInstance: {fileID: 0}
  m_PrefabAsset: {fileID: 0}
  m_GameObject: {fileID: 0}
  m_Enabled: 1
  m_EditorHideFlags: 0
  m_Script: {fileID: 11500000, guid: fdbb5ad067255e74bbcdd113b3886c94, type: 3}
  m_Name: PrettyLogSettings
  m_EditorClassIdentifier: 
  logLevelColor:
    Debug: {r: 0.8207547, g: 0.8207547, b: 0.8207547, a: 1}
    Info: {r: 0, g: 1, b: 1, a: 1}
    Test: {r: 0, g: 0.7169812, b: 0, a: 1}
    Warning: {r: 1, g: 0.8509804, b: 0.015686275, a: 1}
    Error: {r: 0.754717, g: 0, b: 0.16532323, a: 1}
    Critical: {r: 1, g: 0, b: 0, a: 1}
  logLevelSprite:
    Debug: {fileID: 21300000, guid: 5b1136e77463428499097a69a99be795, type: 3}
    Info: {fileID: 21300000, guid: ba0b1a0a106305743ab5eb95384d6d7a, type: 3}
    Test: {fileID: 21300000, guid: 274f33ff9fd18f44d9f698288a84f046, type: 3}
    Warning: {fileID: 21300000, guid: 5a794fb6e2c38ac43bf2c92df0f5561c, type: 3}
    Error: {fileID: 21300000, guid: 5e1e4796406c2964780e01af2da3dde9, type: 3}
    Critical: {fileID: 21300000, guid: ebd50c975b8609a438fe943252b56df8, type: 3}
  levelToLog: 50
  logCategorySettings:
    Script: 1
    Script_Init: 1
    Script_Data: 1
    Script_Utils: 1
    Script_Engine: 1
    Script_Editor: 1
    UI: 1
    Network: 1
    Game: 1
    Game_Loop: 1
    Game_Save: 1
    Game_Load: 1
    Data: 1
    Data_Save: 1
    Data_Load: 1
  PrettyLogWindow: {fileID: 6818890400683106429, guid: c13f3d51d96e9724d8c38c707796769b, type: 3}
